%YAML 1.1
%TAG !u! tag:unity3d.com,2011:
--- !u!114 &6893010969927420063
MonoBehaviour:
  m_ObjectHideFlags: 0
  m_CorrespondingSourceObject: {fileID: 0}
  m_PrefabInstance: {fileID: 0}
  m_PrefabAsset: {fileID: 0}
  m_GameObject: {fileID: 1419089223566022255}
  m_Enabled: 1
  m_EditorHideFlags: 0
  m_Script: {fileID: 11500000, guid: a58df0ff5f889684c98c6bd68fe2372c, type: 3}
  m_Name: 
  m_EditorClassIdentifier: 
--- !u!1 &1998198774193810502
GameObject:
  m_ObjectHideFlags: 0
  m_CorrespondingSourceObject: {fileID: 0}
  m_PrefabInstance: {fileID: 0}
  m_PrefabAsset: {fileID: 0}
  serializedVersion: 6
  m_Component:
  - component: {fileID: 5838143126201479192}
  m_Layer: 0
  m_Name: Enemy
  m_TagString: Enemy
  m_Icon: {fileID: 0}
  m_NavMeshLayer: 0
  m_StaticEditorFlags: 0
  m_IsActive: 1
--- !u!4 &5838143126201479192
Transform:
  m_ObjectHideFlags: 0
  m_CorrespondingSourceObject: {fileID: 0}
  m_PrefabInstance: {fileID: 0}
  m_PrefabAsset: {fileID: 0}
  m_GameObject: {fileID: 1998198774193810502}
  m_LocalRotation: {x: 0, y: 0, z: 0, w: 1}
  m_LocalPosition: {x: 24.311537, y: 39.398926, z: 11.2828865}
  m_LocalScale: {x: 1, y: 1, z: 1}
  m_Children:
  - {fileID: 1422067158013022151}
  m_Father: {fileID: 0}
  m_RootOrder: 0
  m_LocalEulerAnglesHint: {x: 0, y: 0, z: 0}
--- !u!1001 &1419211572557779657
PrefabInstance:
  m_ObjectHideFlags: 0
  serializedVersion: 2
  m_Modification:
    m_TransformParent: {fileID: 5838143126201479192}
    m_Modifications:
    - target: {fileID: 1006356879557798, guid: 391882f14be491c40962add653844907, type: 3}
      propertyPath: m_Name
      value: PawnLight
      objectReference: {fileID: 0}
    - target: {fileID: 4010933918866702, guid: 391882f14be491c40962add653844907, type: 3}
      propertyPath: m_RootOrder
      value: 0
      objectReference: {fileID: 0}
    - target: {fileID: 4010933918866702, guid: 391882f14be491c40962add653844907, type: 3}
      propertyPath: m_LocalPosition.x
      value: 46
      objectReference: {fileID: 0}
    - target: {fileID: 4010933918866702, guid: 391882f14be491c40962add653844907, type: 3}
      propertyPath: m_LocalPosition.y
      value: -39
      objectReference: {fileID: 0}
    - target: {fileID: 4010933918866702, guid: 391882f14be491c40962add653844907, type: 3}
      propertyPath: m_LocalPosition.z
      value: 58
      objectReference: {fileID: 0}
    - target: {fileID: 4010933918866702, guid: 391882f14be491c40962add653844907, type: 3}
      propertyPath: m_LocalRotation.w
      value: 1
      objectReference: {fileID: 0}
    - target: {fileID: 4010933918866702, guid: 391882f14be491c40962add653844907, type: 3}
      propertyPath: m_LocalRotation.x
      value: 0.000000021855694
      objectReference: {fileID: 0}
    - target: {fileID: 4010933918866702, guid: 391882f14be491c40962add653844907, type: 3}
      propertyPath: m_LocalRotation.y
      value: -0
      objectReference: {fileID: 0}
    - target: {fileID: 4010933918866702, guid: 391882f14be491c40962add653844907, type: 3}
      propertyPath: m_LocalRotation.z
      value: -0
      objectReference: {fileID: 0}
    - target: {fileID: 4010933918866702, guid: 391882f14be491c40962add653844907, type: 3}
      propertyPath: m_LocalEulerAnglesHint.x
      value: 0
      objectReference: {fileID: 0}
    - target: {fileID: 4010933918866702, guid: 391882f14be491c40962add653844907, type: 3}
      propertyPath: m_LocalEulerAnglesHint.y
      value: 0
      objectReference: {fileID: 0}
    - target: {fileID: 4010933918866702, guid: 391882f14be491c40962add653844907, type: 3}
      propertyPath: m_LocalEulerAnglesHint.z
      value: 0
      objectReference: {fileID: 0}
    m_RemovedComponents: []
  m_SourcePrefab: {fileID: 100100000, guid: 391882f14be491c40962add653844907, type: 3}
--- !u!1 &1419089223566022255 stripped
GameObject:
  m_CorrespondingSourceObject: {fileID: 1006356879557798, guid: 391882f14be491c40962add653844907, type: 3}
  m_PrefabInstance: {fileID: 1419211572557779657}
  m_PrefabAsset: {fileID: 0}
--- !u!4 &1422067158013022151 stripped
Transform:
  m_CorrespondingSourceObject: {fileID: 4010933918866702, guid: 391882f14be491c40962add653844907, type: 3}
  m_PrefabInstance: {fileID: 1419211572557779657}
  m_PrefabAsset: {fileID: 0}
